{
  "version": "2.0",
  "routeKey": "POST /hook/{key+}",
  "rawPath": "/hook/deploy/joy",
  "rawQueryString": "",
  "headers": {
    "accept": "application/json",
    "accept-encoding": "gzip, deflate",
    "content-length": "4623",
    "content-type": "application/json",
    "host": "sockethook.ericbetts.dev",
    "user-agent": "HTTPie/0.9.3",
    "x-amzn-trace-id": "Root=1-5f2b8d8b-9b2b2020108c6190af8b0d50",
    "x-forwarded-for": "174.127.219.79",
    "x-forwarded-port": "443",
    "x-forwarded-proto": "https"
  },
  "requestContext": {
    "accountId": "689973259218",
    "apiId": "ee085fuceg",
    "domainName": "sockethook.ericbetts.dev",
    "domainPrefix": "sockethook",
    "http": {
      "method": "POST",
      "path": "/hook/deploy/joy",
      "protocol": "HTTP/1.1",
      "sourceIp": "174.127.219.79",
      "userAgent": "HTTPie/0.9.3"
    },
    "requestId": "Q1MN1jPLvHcESsg=",
    "routeKey": "POST /hook/{key+}",
    "stage": "$default",
    "time": "06/Aug/2020:04:56:43 +0000",
    "timeEpoch": 1596689803607
  },
  "pathParameters": {
    "key": "deploy/joy"
  },
  "body": "{\"id\":\"5f263f22b4b5b7d2f8f8d51f\",\"site_id\":\"c45586d5-3023-4b7d-9c09-e6a1a8630835\",\"build_id\":\"5f263f22b4b5b7d2f8f8d51d\",\"state\":\"ready\",\"name\":\"joy-detector-ui\",\"url\":\"https://joy.ericbetts.dev\",\"ssl_url\":\"https://joy.ericbetts.dev\",\"admin_url\":\"https://app.netlify.com/sites/joy-detector-ui\",\"deploy_url\":\"http://5f263f22b4b5b7d2f8f8d51f--joy-detector-ui.netlify.app\",\"deploy_ssl_url\":\"https://5f263f22b4b5b7d2f8f8d51f--joy-detector-ui.netlify.app\",\"created_at\":\"2020-08-02T04:20:50.908Z\",\"updated_at\":\"2020-08-02T04:21:40.803Z\",\"user_id\":\"5e6054fd9cd26b8d3f52f1fd\",\"error_message\":null,\"required\":[],\"required_functions\":[],\"commit_ref\":null,\"review_id\":null,\"branch\":\"master\",\"commit_url\":null,\"skipped\":null,\"locked\":null,\"log_access_attributes\":{\"type\":\"firebase\",\"url\":\"https://netlify-builds4.firebaseio.com/builds/5f263f22b4b5b7d2f8f8d51d/log\",\"endpoint\":\"https://netlify-builds4.firebaseio.com\",\"path\":\"/builds/5f263f22b4b5b7d2f8f8d51d/log\",\"token\":\"eyJ0eXAiOiJKV1QiLCJhbGciOiJIUzI1NiJ9.eyJ2IjowLCJpYXQiOjE1OTYzNDIxMDAsImQiOnsidWlkIjoiIn19.2AsfbHo0jMlFu8EZQBsMCBolCBSMLG4NmNcYslxFLJM\"},\"title\":null,\"review_url\":null,\"published_at\":\"2020-08-02T04:21:40.634Z\",\"context\":\"production\",\"deploy_time\":47,\"available_functions\":[{\"n\":\"series\",\"d\":\"27b8e14f3701e325ce0d96a00c7243f2cf73692915935a9fb928f2904cffcf37\",\"id\":\"662ae293b55e8eb32437320385f9cf1fefe2edb53a53de833bd6d9cc35281c72\",\"a\":\"998805804580\",\"c\":\"2020-07-24T23:00:19.506Z\",\"r\":\"nodejs12.x\",\"s\":96557}],\"summary\":{\"status\":\"ready\",\"messages\":[{\"type\":\"info\",\"title\":\"All files already uploaded\",\"description\":\"All files already uploaded by a previous deploy with the same commits.\",\"details\":null},{\"type\":\"info\",\"title\":\"No redirect rules processed\",\"description\":\"This deploy did not include any redirect rules. [Learn more about redirects](https://www.netlify.com/docs/redirects/).\",\"details\":\"\"},{\"type\":\"info\",\"title\":\"No header rules processed\",\"description\":\"This deploy did not include any header rules. [Learn more about headers](https://www.netlify.com/docs/headers-and-basic-auth/).\",\"details\":\"\"},{\"type\":\"info\",\"title\":\"All linked resources are secure\",\"description\":\"Congratulations! No insecure mixed content found in your files.\",\"details\":null}]},\"screenshot_url\":null,\"site_capabilities\":{\"title\":\"Netlify Team Free\",\"asset_acceleration\":true,\"form_processing\":true,\"cdn_propagation\":\"partial\",\"build_gc_exchange\":\"buildbot-gc\",\"build_node_pool\":\"buildbot-external-ssd\",\"domain_aliases\":true,\"secure_site\":false,\"prerendering\":true,\"proxying\":true,\"ssl\":\"custom\",\"rate_cents\":0,\"yearly_rate_cents\":0,\"ipv6_domain\":\"cdn.makerloop.com\",\"branch_deploy\":true,\"managed_dns\":true,\"geo_ip\":true,\"split_testing\":true,\"id\":\"nf_team_dev\",\"cdn_tier\":\"reg\",\"functions\":{\"invocations\":{\"included\":125000,\"unit\":\"requests\",\"used\":2168},\"runtime\":{\"included\":360000,\"unit\":\"seconds\",\"used\":844}}},\"committer\":null,\"skipped_log\":null,\"manual_deploy\":false,\"file_tracking_optimization\":true,\"plugin_state\":\"success\"}",
  "isBase64Encoded": false
}
